{
  "data": [
    {
      "navigationType": "top",
      "navigationItems": [
        {
          "title": "Pour les consommateurs",
          "href": "/pour-les-consommateurs",
          "navigationItems": []
        },
        {
          "title": "Service clients",
          "href": "/service-clients",
          "navigationItems": []
        }
      ]
    },
    {
      "navigationType": "main",
      "navigationItems": [
        {
          "title": "Shop",
          "href": "/shop",
          "navigationItems": [
            {
              "title": "Only shop has a fly-out with more items",
              "href": "/shop/getting-started",
              "navigationItems": []
            },
            {
              "title": "Another item",
              "href": "#",
              "type": "external",
              "target": "_self",
              "navigationItems": []
            }
          ]
        },
        {
          "title": "Marques",
          "href": "/marques",
          "navigationItems": []
        },
        {
          "title": "Académie",
          "href": "/academie",
          "navigationItems": []
        },
        {
          "title": "Devemez Ambassadeur",
          "href": "/devenez-ambassadeur",
          "navigationItems": []
        }
      ]
    },
    {
      "navigationType": "sub",
      "navigationItems": [
        {
          "title": "Soutien aux entreprises",
          "href": "/soutien-aux-entreprises",
          "navigationItems": []
        },
        {
          "title": "Notre histoire",
          "href": "/notre-histoire",
          "navigationItems": []
        }
      ]
    }
  ]
}
