{
  "data": [
    {
      "navigationType": "top",
      "navigationItems": [
        {
          "title": "Pour les consommateurs",
          "href": "/pour-les-consommateurs",
          "navigationItems": []
        },
        {
          "title": "Service clients",
          "href": "/service-clients",
          "navigationItems": []
        }
      ]
    },
    {
      "navigationType": "main",
      "navigationItems": [
        {
          "title": "Shop",
          "href": "#",
          "flyout": "shop",
          "promo": {
            "title": "Discover our Grooming range",
            "buttonText": "Lorem Ipsum Galor",
            "buttonUrl": "/go",
            "theme": "light",
            "media": [
              {
                "id": 99,
                "componentName": "MediaTile",
                "sizes": {
                  "lg": {
                    "url": "/en/media/0A12806B-6EBB-42DA-8E6247CA291CD092=363ED592-84E6-4262-AB8D81E768176504/keune_apotheek.jpg",
                    "width": 1920,
                    "height": 1420
                  },
                  "xxl": {
                    "url": "/en/media/0A12806B-6EBB-42DA-8E6247CA291CD092=51AF67DF-C823-4582-96676305056D98C8/keune_apotheek.jpg",
                    "width": 3840,
                    "height": 2840
                  },
                  "md": {
                    "url": "/en/media/0A12806B-6EBB-42DA-8E6247CA291CD092=56E60A73-DD72-4A5D-99DEFD870168D47C/keune_apotheek.jpg",
                    "width": 1024,
                    "height": 757
                  },
                  "xl": {
                    "url": "/en/media/0A12806B-6EBB-42DA-8E6247CA291CD092=69B41250-7EC9-42F5-AB0152A96846038A/keune_apotheek.jpg",
                    "width": 2560,
                    "height": 1893
                  },
                  "sm": {
                    "url": "/en/media/0A12806B-6EBB-42DA-8E6247CA291CD092=BB3620C3-60A3-43E4-9A43F6BA93D73777/keune_apotheek.jpg",
                    "width": 640,
                    "height": 473
                  }
                },
                "assetId": "0A12806B-6EBB-42DA-8E6247CA291CD092",
                "filename": "keune_apotheek",
                "alt": null,
                "url": "/en/media/0A12806B-6EBB-42DA-8E6247CA291CD092/keune_apotheek"
              }
            ]
          },
          "navigationItems": [
            {
              "title": "Care",
              "href": "#",
              "buttonText": "See all caring products",
              "buttonUrl": "#",
              "navigationItems": [
                {
                  "title": "By product type",
                  "href": "#",
                  "navigationItems": [
                    {
                      "title": "Shampoo",
                      "href": "#",
                      "navigationItems": [
                        {
                          "title": "5th level test 1",
                          "href": "#"
                        },
                        {
                          "title": "5th level test 2",
                          "href": "#"
                        },
                        {
                          "title": "5th level test 3",
                          "href": "#"
                        }
                      ]
                    },
                    {
                      "title": "Conditioner",
                      "href": "#"
                    },
                    {
                      "title": "Mask",
                      "href": "#"
                    },
                    {
                      "title": "Leave-In conditioner",
                      "href": "#"
                    },
                    {
                      "title": "Scrub",
                      "href": "#"
                    },
                    {
                      "title": "Oil",
                      "href": "#"
                    },
                    {
                      "title": "Elixir",
                      "href": "#"
                    },
                    {
                      "title": "Men’s Care",
                      "href": "#"
                    }
                  ]
                },
                {
                  "title": "By Brand",
                  "href": "#",
                  "navigationItems": [
                    {
                      "title": "Care by Keune",
                      "href": "#"
                    },
                    {
                      "title": "1922 by J.M. Keune",
                      "href": "#"
                    },
                    {
                      "title": "So Pure",
                      "href": "#"
                    }
                  ]
                },
                {
                  "title": "By Benefit",
                  "href": "#",
                  "navigationItems": [
                    {
                      "title": "Color protection",
                      "href": "#"
                    },
                    {
                      "title": "Silvery hair",
                      "href": "#"
                    },
                    {
                      "title": "Dandruff free",
                      "href": "#"
                    },
                    {
                      "title": "Hair loss",
                      "href": "#"
                    },
                    {
                      "title": "Sensitive scalp",
                      "href": "#"
                    },
                    {
                      "title": "More shine",
                      "href": "#"
                    },
                    {
                      "title": "Dry, Damaged hair",
                      "href": "#"
                    },
                    {
                      "title": "Sun protection",
                      "href": "#"
                    },
                    {
                      "title": "More Volume",
                      "href": "#"
                    },
                    {
                      "title": "Sleek and Smooth",
                      "href": "#"
                    },
                    {
                      "title": "Defined curls",
                      "href": "#"
                    },
                    {
                      "title": "Oily",
                      "href": "#"
                    },
                    {
                      "title": "Scalp",
                      "href": "#"
                    }
                  ]
                }
              ]
            },
            {
              "title": "Style",
              "href": "#",
              "buttonText": "See all styling products",
              "buttonUrl": "#",
              "navigationItems": [
                {
                  "title": "By product type",
                  "href": "#",
                  "navigationItems": [
                    {
                      "title": "Gel",
                      "href": "#"
                    },
                    {
                      "title": "Hairspray",
                      "href": "#"
                    },
                    {
                      "title": "Spray",
                      "href": "#"
                    },
                    {
                      "title": "Lotion",
                      "href": "#"
                    },
                    {
                      "title": "Mousse",
                      "href": "#"
                    },
                    {
                      "title": "Wax",
                      "href": "#"
                    },
                    {
                      "title": "Powder",
                      "href": "#"
                    },
                    {
                      "title": "Cream",
                      "href": "#"
                    },
                    {
                      "title": "Serum",
                      "href": "#"
                    },
                    {
                      "title": "Paste",
                      "href": "#"
                    },
                    {
                      "title": "Clay",
                      "href": "#"
                    },
                    {
                      "title": "Balm",
                      "href": "#"
                    },
                    {
                      "title": "Mud",
                      "href": "#"
                    },
                    {
                      "title": "Pomade",
                      "href": "#"
                    }
                  ]
                },
                {
                  "title": "By Brand",
                  "href": "#",
                  "navigationItems": [
                    {
                      "title": "Care by Keune",
                      "href": "#"
                    },
                    {
                      "title": "1922 by J.M. Keune",
                      "href": "#"
                    },
                    {
                      "title": "So Pure",
                      "href": "#"
                    },
                    {
                      "title": "Blend",
                      "href": "#"
                    }
                  ]
                },
                {
                  "title": "By Category",
                  "href": "#",
                  "navigationItems": [
                    {
                      "title": "Prep",
                      "href": "#"
                    },
                    {
                      "title": "Shape",
                      "href": "#"
                    },
                    {
                      "title": "Finish",
                      "href": "#"
                    }
                  ]
                },
                {
                  "title": "By Benefit",
                  "href": "#",
                  "navigationItems": [
                    {
                      "title": "Heat protection",
                      "href": "#"
                    },
                    {
                      "title": "More shine",
                      "href": "#"
                    },
                    {
                      "title": "More volume",
                      "href": "#"
                    },
                    {
                      "title": "Sleek and Smooth",
                      "href": "#"
                    },
                    {
                      "title": "Defined curls",
                      "href": "#"
                    },
                    {
                      "title": "Refresh",
                      "href": "#"
                    },
                    {
                      "title": "Straight hair",
                      "href": "#"
                    },
                    {
                      "title": "Hold",
                      "href": "#"
                    }
                  ]
                }
              ]
            },
            {
              "title": "Color",
              "href": "#",
              "navigationItems": [
                {
                  "title": "By product type",
                  "href": "#",
                  "navigationItems": [
                    {
                      "title": "Permanent",
                      "href": "#"
                    },
                    {
                      "title": "Demi-permanent",
                      "href": "#"
                    },
                    {
                      "title": "Lighteners",
                      "href": "#"
                    },
                    {
                      "title": "Vivids",
                      "href": "#"
                    },
                    {
                      "title": "Bond",
                      "href": "#"
                    },
                    {
                      "title": "Fusion",
                      "href": "#"
                    },
                    {
                      "title": "Limited edition",
                      "href": "#"
                    }
                  ]
                },
                {
                  "title": "Latest trends",
                  "href": "#",
                  "navigationItems": [
                    {
                      "title": "Balayage",
                      "href": "#"
                    },
                    {
                      "title": "Highlights",
                      "href": "#"
                    },
                    {
                      "title": "Babylights",
                      "href": "#"
                    },
                    {
                      "title": "Pastels",
                      "href": "#"
                    },
                    {
                      "title": "Copper",
                      "href": "#"
                    }
                  ]
                }
              ]
            },
            {
              "title": "Men‘s",
              "href": "#",
              "buttonText": "See products for men",
              "buttonUrl": "#",
              "navigationItems": [
                {
                  "title": "By product type",
                  "href": "#",
                  "navigationItems": [
                    {
                      "title": "Shampoo",
                      "href": "#"
                    },
                    {
                      "title": "Conditioner",
                      "href": "#"
                    },
                    {
                      "title": "Styling",
                      "href": "#"
                    },
                    {
                      "title": "Grooming",
                      "href": "#"
                    }
                  ]
                },
                {
                  "title": "By benefit",
                  "href": "#",
                  "navigationItems": [
                    {
                      "title": "Refresh",
                      "href": "#"
                    },
                    {
                      "title": "Dandruff",
                      "href": "#"
                    },
                    {
                      "title": "Hairloss",
                      "href": "#"
                    },
                    {
                      "title": "Cleansing",
                      "href": "#"
                    },
                    {
                      "title": "Smooth",
                      "href": "#"
                    },
                    {
                      "title": "Strong hold",
                      "href": "#"
                    },
                    {
                      "title": "Shine",
                      "href": "#"
                    }
                  ]
                }
              ]
            },
            {
              "title": "By benefit",
              "href": "#",
              "navigationItems": [
                {
                  "title": "Care benefit",
                  "href": "#",
                  "navigationItems": [
                    {
                      "title": "Color protection",
                      "href": "#"
                    },
                    {
                      "title": "Silvery hair",
                      "href": "#"
                    },
                    {
                      "title": "Dandruff free",
                      "href": "#"
                    },
                    {
                      "title": "Hair loss",
                      "href": "#"
                    },
                    {
                      "title": "Sensitive scalp",
                      "href": "#"
                    },
                    {
                      "title": "More shine",
                      "href": "#"
                    },
                    {
                      "title": "Dry, Damaged hair",
                      "href": "#"
                    },
                    {
                      "title": "Sun protection",
                      "href": "#"
                    },
                    {
                      "title": "More Volume",
                      "href": "#"
                    },
                    {
                      "title": "Sleek and Smooth",
                      "href": "#"
                    },
                    {
                      "title": "Defined curls",
                      "href": "#"
                    },
                    {
                      "title": "Oily Scalp",
                      "href": "#"
                    }
                  ]
                },
                {
                  "title": "Style benefit",
                  "href": "#",
                  "navigationItems": [
                    {
                      "title": "Heat protection",
                      "href": "#"
                    },
                    {
                      "title": "More shine",
                      "href": "#"
                    },
                    {
                      "title": "More volume",
                      "href": "#"
                    },
                    {
                      "title": "Sleek and Smooth",
                      "href": "#"
                    },
                    {
                      "title": "Defined curls",
                      "href": "#"
                    },
                    {
                      "title": "Refresh",
                      "href": "#"
                    },
                    {
                      "title": "Straight hair",
                      "href": "#"
                    },
                    {
                      "title": "Hold",
                      "href": "#"
                    }
                  ]
                }
              ]
            },
            {
              "title": "Brands",
              "href": "#",
              "buttonText": "See all brands",
              "buttonUrl": "#",
              "navigationItems": [
                {
                  "title": "Care by Keune",
                  "href": "#",
                  "navigationItems": [
                    {
                      "title": "Vital Nutrition",
                      "href": "#"
                    },
                    {
                      "title": "Curl Control",
                      "href": "#"
                    },
                    {
                      "title": "Color Brillianz",
                      "href": "#"
                    },
                    {
                      "title": "Derma Activate",
                      "href": "#"
                    },
                    {
                      "title": "Absolute Volume",
                      "href": "#"
                    },
                    {
                      "title": "Satin Oil",
                      "href": "#"
                    },
                    {
                      "title": "Keratin Smooth",
                      "href": "#"
                    },
                    {
                      "title": "Sun Shield",
                      "href": "#"
                    },
                    {
                      "title": "Derma Exfoliate",
                      "href": "#"
                    },
                    {
                      "title": "Derma Regulate",
                      "href": "#"
                    },
                    {
                      "title": "Derma Sensitive",
                      "href": "#"
                    },
                    {
                      "title": "Miracle Elixir",
                      "href": "#"
                    },
                    {
                      "title": "Tinta Color Care",
                      "href": "#"
                    },
                    {
                      "title": "Silver Savior",
                      "href": "#"
                    }
                  ]
                },
                {
                  "title": "Style by Keune",
                  "href": "#",
                  "navigationItems": [
                    {
                      "title": "Curl",
                      "href": "#"
                    },
                    {
                      "title": "Fix",
                      "href": "#"
                    },
                    {
                      "title": "Gloss",
                      "href": "#"
                    },
                    {
                      "title": "Heat Protect",
                      "href": "#"
                    },
                    {
                      "title": "Refresh",
                      "href": "#"
                    },
                    {
                      "title": "Smooth",
                      "href": "#"
                    },
                    {
                      "title": "Texture",
                      "href": "#"
                    },
                    {
                      "title": "Volume",
                      "href": "#"
                    }
                  ]
                },
                {
                  "title": "Color by Keune",
                  "href": "#",
                  "navigationItems": [
                    {
                      "title": "Permanent",
                      "href": "#"
                    },
                    {
                      "title": "Demi-permanent",
                      "href": "#"
                    },
                    {
                      "title": "Lighteners",
                      "href": "#"
                    },
                    {
                      "title": "Vivids",
                      "href": "#"
                    },
                    {
                      "title": "Bond Fusion",
                      "href": "#"
                    },
                    {
                      "title": "Limited edition",
                      "href": "#"
                    }
                  ]
                },
                {
                  "title": "So Pure by Keune",
                  "href": "#",
                  "navigationItems": [
                    {
                      "title": "Calming",
                      "href": "#"
                    },
                    {
                      "title": "Cooling",
                      "href": "#"
                    },
                    {
                      "title": "Recover",
                      "href": "#"
                    },
                    {
                      "title": "Exfoliating",
                      "href": "#"
                    },
                    {
                      "title": "Energizing",
                      "href": "#"
                    },
                    {
                      "title": "Moisturizing",
                      "href": "#"
                    },
                    {
                      "title": "Color Care",
                      "href": "#"
                    },
                    {
                      "title": "Volumizing",
                      "href": "#"
                    },
                    {
                      "title": "Moroccan Oil",
                      "href": "#"
                    },
                    {
                      "title": "Color",
                      "href": "#"
                    },
                    {
                      "title": "Boosters",
                      "href": "#"
                    },
                    {
                      "title": "Lifting Powder",
                      "href": "#"
                    },
                    {
                      "title": "Styling",
                      "href": "#"
                    }
                  ]
                },
                {
                  "title": "Blend by Keune",
                  "href": "#",
                  "navigationItems": [
                    {
                      "title": "Styling",
                      "href": "#"
                    }
                  ]
                },
                {
                  "title": "1922 by J.M. Keune",
                  "href": "#",
                  "navigationItems": [
                    {
                      "title": "Essential",
                      "href": "#"
                    },
                    {
                      "title": "Refreshing",
                      "href": "#"
                    },
                    {
                      "title": "Deep cleansing",
                      "href": "#"
                    },
                    {
                      "title": "Fortifying",
                      "href": "#"
                    },
                    {
                      "title": "Purifying",
                      "href": "#"
                    },
                    {
                      "title": "Color",
                      "href": "#"
                    },
                    {
                      "title": "Grooming",
                      "href": "#"
                    },
                    {
                      "title": "Styling",
                      "href": "#"
                    }
                  ]
                }
              ]
            }
          ]
        },
        {
          "title": "Brand",
          "href": "#",
          "flyout": "brand",
          "promo": {
            "title": "Discover our Grooming range",
            "buttonText": "Lorem Ipsum Galor",
            "buttonUrl": "/go",
            "theme": "dark",
            "media": [
              {
                "id": 337,
                "componentName": "MediaTile",
                "sizes": {
                  "lg": {
                    "url": "/en/media/61FDB980-792E-45CC-8E4C9D2D15854944=04C1A833-0CB6-4618-B45286ED22A27181/test.jpg",
                    "width": 1920,
                    "height": 1420
                  },
                  "xl": {
                    "url": "/en/media/61FDB980-792E-45CC-8E4C9D2D15854944=0C5D7983-C310-4762-910C0535213034E3/test.jpg",
                    "width": 2560,
                    "height": 1893
                  },
                  "md": {
                    "url": "/en/media/61FDB980-792E-45CC-8E4C9D2D15854944=0F46825D-64C8-4ED3-BD7F7C4B2AAD8596/test.jpg",
                    "width": 1024,
                    "height": 757
                  },
                  "xxl": {
                    "url": "/en/media/61FDB980-792E-45CC-8E4C9D2D15854944=31CEC110-1EBC-4C00-B337167DC5BBCAFF/test.jpg",
                    "width": 3840,
                    "height": 2840
                  },
                  "sm": {
                    "url": "/en/media/61FDB980-792E-45CC-8E4C9D2D15854944=82EFFA1D-650A-4F21-A5BE75FDC7E16A13/test.jpg",
                    "width": 640,
                    "height": 473
                  }
                },
                "assetId": "61FDB980-792E-45CC-8E4C9D2D15854944",
                "filename": "test",
                "alt": null,
                "url": "/en/media/61FDB980-792E-45CC-8E4C9D2D15854944/test"
              }
            ]
          },
          "navigationItems": [
            {
              "title": "Care by Keune",
              "href": "#",
              "buttonText": "Discover our brands",
              "buttonUrl": "#",
              "navigationItems": [
                {
                  "title": "Vital Nutrition",
                  "href": "#"
                },
                {
                  "title": "Curl Control",
                  "href": "#"
                },
                {
                  "title": "Color Brillianz",
                  "href": "#"
                },
                {
                  "title": "Derma Activate",
                  "href": "#"
                },
                {
                  "title": "Absolute Volume",
                  "href": "#"
                },
                {
                  "title": "Satin Oil",
                  "href": "#"
                },
                {
                  "title": "Keratin Smooth",
                  "href": "#"
                },
                {
                  "title": "Sun Shield",
                  "href": "#"
                },
                {
                  "title": "Derma Exfoliate",
                  "href": "#"
                },
                {
                  "title": "Derma Regulate",
                  "href": "#"
                },
                {
                  "title": "Derma Sensitive",
                  "href": "#"
                },
                {
                  "title": "Miracle Elixir",
                  "href": "#"
                },
                {
                  "title": "Tinta Color Care",
                  "href": "#"
                },
                {
                  "title": "Silver Savior",
                  "href": "#"
                }
              ]
            },
            {
              "title": "Style by Keune",
              "href": "#",
              "buttonText": "Discover our brands",
              "buttonUrl": "#",
              "navigationItems": [
                {
                  "title": "Curl",
                  "href": "#"
                },
                {
                  "title": "Fix",
                  "href": "#"
                },
                {
                  "title": "Gloss",
                  "href": "#"
                },
                {
                  "title": "Heat Protect",
                  "href": "#"
                },
                {
                  "title": "Refresh",
                  "href": "#"
                },
                {
                  "title": "Smooth",
                  "href": "#"
                },
                {
                  "title": "Texture",
                  "href": "#"
                },
                {
                  "title": "Volume",
                  "href": "#"
                }
              ]
            },
            {
              "title": "Color by Keune",
              "href": "#",
              "buttonText": "Discover our brands",
              "buttonUrl": "#",
              "navigationItems": [
                {
                  "title": "Permanent",
                  "href": "#"
                },
                {
                  "title": "Demi-permanent",
                  "href": "#"
                },
                {
                  "title": "Lighteners",
                  "href": "#"
                },
                {
                  "title": "Vivids",
                  "href": "#"
                },
                {
                  "title": "Bond",
                  "href": "#"
                },
                {
                  "title": "Fusion",
                  "href": "#"
                },
                {
                  "title": "Limited edition",
                  "href": "#"
                }
              ]
            },
            {
              "title": "So Pure by Keune",
              "href": "#",
              "buttonText": "Discover our brands",
              "buttonUrl": "#",
              "navigationItems": [
                {
                  "title": "Calming",
                  "href": "#"
                },
                {
                  "title": "Cooling",
                  "href": "#"
                },
                {
                  "title": "Recover",
                  "href": "#"
                },
                {
                  "title": "Exfoliating",
                  "href": "#"
                },
                {
                  "title": "Energizing",
                  "href": "#"
                },
                {
                  "title": "Moisturizing",
                  "href": "#"
                },
                {
                  "title": "Color Care",
                  "href": "#"
                },
                {
                  "title": "Volumizing",
                  "href": "#"
                },
                {
                  "title": "After Color",
                  "href": "#"
                },
                {
                  "title": "Moroccan Oil",
                  "href": "#"
                },
                {
                  "title": "Color",
                  "href": "#"
                },
                {
                  "title": "Boosters",
                  "href": "#"
                },
                {
                  "title": "Lifting Powder",
                  "href": "#"
                },
                {
                  "title": "Styling",
                  "href": "#"
                }
              ]
            },
            {
              "title": "Blend by Keune",
              "href": "#",
              "buttonText": "Discover our brands",
              "buttonUrl": "#",
              "navigationItems": [
                {
                  "title": "Styling",
                  "href": "#"
                }
              ]
            },
            {
              "title": "1922 by J.M. Keune",
              "href": "#",
              "buttonText": "Discover our brands",
              "buttonUrl": "#",
              "navigationItems": [
                {
                  "title": "Essential",
                  "href": "#"
                },
                {
                  "title": "Refreshing",
                  "href": "#"
                },
                {
                  "title": "Deep cleansing",
                  "href": "#"
                },
                {
                  "title": "Fortifying",
                  "href": "#"
                },
                {
                  "title": "Purifying",
                  "href": "#"
                },
                {
                  "title": "Color",
                  "href": "#"
                },
                {
                  "title": "Grooming",
                  "href": "#"
                },
                {
                  "title": "Styling",
                  "href": "#"
                }
              ]
            }
          ]
        },
        {
          "title": "Marques",
          "href": "/marques",
          "navigationItems": []
        },
        {
          "title": "Académie",
          "href": "/academie",
          "navigationItems": []
        },
        {
          "title": "Devenez Ambassadeur",
          "href": "/devenez-ambassadeur",
          "navigationItems": []
        }
      ]
    },
    {
      "navigationType": "sub",
      "navigationItems": [
        {
          "title": "Soutien aux entreprises",
          "href": "/soutien-aux-entreprises",
          "navigationItems": []
        },
        {
          "title": "Notre histoire",
          "href": "/notre-histoire",
          "navigationItems": []
        }
      ]
    },
    {
      "navigationType": "footer",
      "navigationItems": [
        {
          "title": "Discover",
          "navigationItems": [
            {
              "title": "Care",
              "href": "/care",
              "navigationItems": []
            },
            {
              "title": "Style",
              "href": "/care",
              "navigationItems": []
            },
            {
              "title": "Color",
              "href": "/care",
              "navigationItems": []
            },
            {
              "title": "Forming",
              "href": "/care",
              "navigationItems": []
            },
            {
              "title": "Beard",
              "href": "/beard",
              "navigationItems": []
            },
            {
              "title": "By benifit",
              "href": "/beard",
              "navigationItems": []
            },
            {
              "title": "Brands",
              "href": "/beard",
              "navigationItems": []
            },
            {
              "title": "Style",
              "href": "/style",
              "navigationItems": []
            },
            {
              "title": "Color",
              "href": "/color",
              "navigationItems": []
            },
            {
              "title": "Forming",
              "href": "/forming",
              "navigationItems": []
            },
            {
              "title": "Beard",
              "href": "/beard",
              "navigationItems": []
            },
            {
              "title": "By benifit",
              "href": "/by-benifit",
              "navigationItems": []
            },
            {
              "title": "Brands",
              "href": "/brands",
              "navigationItems": []
            }
          ]
        },
        {
          "title": "Information",
          "navigationItems": [
            {
              "title": "Delivery and returns",
              "href": "/delivery-and-returns",
              "navigationItems": []
            },
            {
              "title": "Order and payment",
              "href": "/order-and-payment",
              "navigationItems": []
            },
            {
              "title": "Your order status",
              "href": "/your-order-status",
              "navigationItems": []
            }
          ]
        },
        {
          "title": "KEUNE",
          "navigationItems": [
            {
              "title": "About KEUNE",
              "href": "/delivery-and-returns",
              "navigationItems": []
            },
            {
              "title": "Careers at KEUNE",
              "href": "/order-and-payment",
              "navigationItems": []
            },
            {
              "title": "My account",
              "href": "/your-order-status",
              "navigationItems": []
            },
            {
              "title": "Switch to pro",
              "href": "/your-order-status",
              "navigationItems": []
            },
            {
              "title": "Become an ambassador",
              "href": "/your-order-status",
              "navigationItems": []
            },
            {
              "title": "Contact",
              "href": "/contact",
              "navigationItems": []
            }
          ]
        }
      ]
    },
    {
      "navigationType": "socialLinks",
      "navigationItems": [
        {
          "title": null,
          "href": "https://www.facebook.com/KeuneHaircosmetics"
        }
      ]
    }
  ],
  "statusCode": "ok",
  "message": "success"
}
