{
  "id": "f2099944-034a-4ead-a31b-03c046590c39",
  "title": "Content",
  "metaDescription": "Meta text about this page.",
  "route": "/content",
  "language": "nl",
  "publishDate": "2018-06-25T13:58:15",
  "template": "ContentPage",
  "componentData": [
    {
      "id": 1165,
      "componentName": "Title",
      "title": "Content component",
      "subtitle": "Demo"
    },
    {
      "id": 917,
      "componentName": "Content",
      "title": "Apothecary Heritage",
      "subtitle": "Benefits",
      "text": "<p>Steeped in history. Built on dreams. We will never forget where we came from. 1922 by J.M. Keune is a homage to our founder, a daring chemist from Amsterdam.</p>",
      "buttonText": "LOREM IPSUM GALOR",
      "buttonUrl": "/about",
      "media": [
        {
          "id": 183,
          "componentName": "MediaTile",
          "sizes": {
            "sm": {
              "url": "/en/media/DF4DDBE9-8C55-499C-93F76A8188F90A16=28AC682F-D0CF-46CB-A11869C5ACB83203/test.jpg",
              "width": 640,
              "height": 473
            },
            "xxl": {
              "url": "/en/media/DF4DDBE9-8C55-499C-93F76A8188F90A16=4948DEB7-9584-415B-891F7A7E55F15450/test.jpg",
              "width": 3840,
              "height": 2840
            },
            "md": {
              "url": "/en/media/DF4DDBE9-8C55-499C-93F76A8188F90A16=B27ABE97-3D85-4431-B5864AA72C8A2436/test.jpg",
              "width": 1024,
              "height": 757
            },
            "lg": {
              "url": "/en/media/DF4DDBE9-8C55-499C-93F76A8188F90A16=D98B5B1E-7435-446F-93A222F76B71966A/test.jpg",
              "width": 1920,
              "height": 1420
            },
            "xl": {
              "url": "/en/media/DF4DDBE9-8C55-499C-93F76A8188F90A16=F2C97D1B-AD17-4644-841B592537BDD1CB/test.jpg",
              "width": 2560,
              "height": 1893
            }
          },
          "assetId": "DF4DDBE9-8C55-499C-93F76A8188F90A16",
          "filename": "test",
          "alt": null,
          "url": "/en/media/DF4DDBE9-8C55-499C-93F76A8188F90A16/test"
        }
      ],
      "hasMediaRight": false
    },
    {
      "id": 1418,
      "componentName": "Spacer",
      "height": 60
    },
    {
      "id": 97,
      "componentName": "Content",
      "title": "Apothecary Heritage",
      "subtitle": "Benefits",
      "text": "<p>Steeped in history. Built on dreams. We will never forget where we came from. 1922 by J.M. Keune is a homage to our founder, a daring chemist from Amsterdam.</p><p>Steeped in history. Built on dreams. We will never forget where we came from. 1922 by J.M. Keune is a homage to our founder, a daring chemist from Amsterdam.</p><p>Steeped in history. Built on dreams. We will never forget where we came from. 1922 by J.M. Keune is a homage to our founder, a daring chemist from Amsterdam.</p><p>Steeped in history. Built on dreams. We will never forget where we came from. 1922 by J.M. Keune is a homage to our founder, a daring chemist from Amsterdam.</p><p>Steeped in history. Built on dreams. We will never forget where we came from. 1922 by J.M. Keune is a homage to our founder, a daring chemist from Amsterdam.</p><p>Steeped in history. Built on dreams. We will never forget where we came from. 1922 by J.M. Keune is a homage to our founder, a daring chemist from Amsterdam.</p><p>Steeped in history. Built on dreams. We will never forget where we came from. 1922 by J.M. Keune is a homage to our founder, a daring chemist from Amsterdam.</p>",
      "buttonText": "Read more",
      "buttonUrl": "/about",
      "media": [
        {
          "id": 991,
          "componentName": "MediaTile",
          "assetId": "06A79AB1-F273-4A47-B3CCED8F68168B63",
          "filename": "keune_apotheek.jpg",
          "title": "Keune apotheek",
          "url": "/en/media/06A79AB1-F273-4A47-B3CCED8F68168B63/keune_apotheek.jpg"
        }
      ],
      "hasMediaRight": false
    },
    {
      "id": 102,
      "componentName": "Content",
      "title": "Refreshes cool blonde and silver tones",
      "subtitle": "Clean and cool",
      "text": "<p>If you've got beautiful cool blonde hair, you'll want to keep it that way. Care Silver Saviour Shampoo contains brass-busting violet pigments to neutralise unwanted warm tones and nourishing Provitamin B5 to keep your hair looking and feeling silky soft. Wheat proteins protect the inner hair structure and add volume.</p>\n<p>Here's a tip: you can even use Care Silver Saviour Shampoo to tone after a lightening process.</p>\n<p>Here's a tip: you can even use Care Silver Saviour Shampoo to tone after a lightening process.</p>\n<p>Here's a tip: you can even use Care Silver Saviour Shampoo to tone after a lightening process.</p>\n<p>Here's a tip: you can even use Care Silver Saviour Shampoo to tone after a lightening process.</p>",
      "media": [
        {
          "id": 104,
          "componentName": "MediaTile",
          "assetId": "91DA241A-3786-4824-82558DB6CCD607B0",
          "filename": "test.jpg",
          "title": "test",
          "url": "/en/media/91DA241A-3786-4824-82558DB6CCD607B0/test.jpg"
        }
      ],
      "hasMediaRight": true
    }
  ]
}
