{
  "id": "f2099944-034a-4ead-a31b-03c046590c39",
  "title": "Tile",
  "metaDescription": "Meta text about this page.",
  "route": "/tile",
  "language": "nl",
  "publishDate": "2018-06-25T13:58:15",
  "template": "ContentPage",
  "componentData": [
    {
      "id": 1794,
      "componentName": "Spacer",
      "vertical": 3
    },
    {
      "id": 1799,
      "componentName": "ProductTile",
      "title": "STYLE DRY SHAMPOO",
      "text": "Leaves hair refreshed and shiny",
      "price": 16.99,
      "promoPrice": 12.99,
      "media": {
        "id": 2,
        "componentName": "Image",
        "alt": "Test ResponsiveImage alt",
        "src": "http://placehold.it/652x652",
        "width": 652,
        "height": 652
      }
    },
    {
      "id": 1801,
      "componentName": "Spacer",
      "vertical": 3
    }
  ]
}
